{
  "names": [
    "Cow calf"
  ],
  "attackAnim": 5332,
  "attackSound": 366,
  "defenceAnim": 5330,
  "defendSound": 368,
  "deathAnim": 5331,
  "deathDelay": 5,
  "deathSound": 367,
  "respawnDelay": 59,
  "hitpoints": 69,
  "maxHit": 11,
  "attackStyle": "MELEE",
  "attackBonus": "CRUSH_ATT",
  "combatLevels": {
    "ATTACK": 1,
    "RANGE": 1,
    "STRENGTH": 1,
    "DEFENSE": 1,
    "MAGE": 1
  },
  "attackRange": -1,
  "attackGfx": -1,
  "attackProjectile": -1,
  "agressivenessType": "PASSIVE",
  "aggroDistance": 4,
  "deAggroDistance": -1,
  "maxDistFromSpawn": -1
}